NYPD Shooting Incident Report
…
nypd_data <- nypd_data %>% pivot_longer(cols = -c(INCIDENT_KEY, `BORO`, OCCUR_TIME, PRECINCT, JURISDICTION_CODE,LOCATION_DESC,STATISTICAL_MURDER_FLAG, PERP_AGE_GROUP, PERP_SEX,PERP_RACE, VIC_AGE_GROUP,VIC_SEX, VIC_RACE, X_COORD_CD, Y_COORD_CD, Latitude, Longitude, Lon_Lat),
names_to = "OCCUR_DATE", 
values_to = "Date") %>%
select(-c(INCIDENT_KEY, OCCUR_TIME, JURISDICTION_CODE,LOCATION_DESC,PERP_AGE_GROUP, PERP_SEX, PERP_RACE, X_COORD_CD, Y_COORD_CD, Latitude, Longitude, Lon_Lat))

nypd_data

## # A tibble: 23,585 x 8
##    BORO     PRECINCT STATISTICAL_MURD~ VIC_AGE_GROUP VIC_SEX VIC_RACE OCCUR_DATE
##    <chr>       <dbl> <lgl>             <chr>         <chr>   <chr>    <chr>     
##  1 BRONX          52 TRUE              25-44         F       BLACK H~ OCCUR_DATE
##  2 QUEENS        106 FALSE             65+           M       WHITE    OCCUR_DATE
##  3 BROOKLYN       77 FALSE             18-24         F       BLACK    OCCUR_DATE
##  4 BRONX          40 FALSE             <18           M       BLACK    OCCUR_DATE
##  5 QUEENS        100 FALSE             18-24         M       BLACK    OCCUR_DATE
##  6 BROOKLYN       67 FALSE             <18           M       BLACK    OCCUR_DATE
##  7 BROOKLYN       77 FALSE             <18           M       BLACK    OCCUR_DATE
##  8 BROOKLYN       81 FALSE             25-44         M       BLACK    OCCUR_DATE
##  9 QUEENS        101 FALSE             18-24         M       BLACK    OCCUR_DATE
## 10 QUEENS        106 FALSE             18-24         M       BLACK    OCCUR_DATE
## # ... with 23,575 more rows, and 1 more variable: Date <chr>
…
